<svg width="32" height="32" viewBox="0 0 32 32" fill="none" xmlns="http://www.w3.org/2000/svg">
<path opacity="0.54" fill-rule="evenodd" clip-rule="evenodd" d="M25.3332 8.53329L23.4665 6.66663L15.9998 14.1333L8.53317 6.66663L6.6665 8.53329L14.1332 16L6.6665 23.4666L8.53317 25.3333L15.9998 17.8666L23.4665 25.3333L25.3332 23.4666L17.8665 16L25.3332 8.53329Z" fill="black"/>
</svg>
