<svg width="36" height="38" viewBox="0 0 36 38" fill="none" xmlns="http://www.w3.org/2000/svg">
<g filter="url(#filter0_dd)">
<path fill-rule="evenodd" clip-rule="evenodd" d="M2 2V34H34V2H2Z" fill="#1B749F"/>
<path d="M33.75 33.75H2.25V2.25H33.75V33.75Z" stroke="url(#paint0_linear)" stroke-width="0.5"/>
<path d="M33.75 33.75H2.25V2.25H33.75V33.75Z" stroke="url(#paint1_linear)" stroke-width="0.5"/>
</g>
<g clip-path="url(#clip0)">
<path d="M2.70127 2.70188H33.2978V33.2984H2.70127V2.70188Z" stroke="#22759D" stroke-width="1.40351"/>
<path d="M24.7365 9.5791H11.2628C10.3365 9.5791 9.58703 10.337 9.58703 11.2633L9.57861 26.4212L12.947 23.0528H24.7365C25.6628 23.0528 26.4207 22.2949 26.4207 21.3686V11.2633C26.4207 10.337 25.6628 9.5791 24.7365 9.5791ZM14.6312 19.6844H12.947V18.0002H14.6312V19.6844ZM14.6312 17.158H12.947V15.4738H14.6312V17.158ZM16.3155 14.6317H12.947V12.9475H16.3155V14.6317ZM20.526 19.6844H14.6312V18.0002H20.526V19.6844ZM23.0523 17.158H14.6312V15.4738H23.0523V17.158ZM23.0523 14.6317H16.3155V12.9475H23.0523V14.6317Z" fill="white"/>
</g>
<defs>
<filter id="filter0_dd" x="0" y="0" width="36" height="38" filterUnits="userSpaceOnUse" color-interpolation-filters="sRGB">
<feFlood flood-opacity="0" result="BackgroundImageFix"/>
<feColorMatrix in="SourceAlpha" type="matrix" values="0 0 0 0 0 0 0 0 0 0 0 0 0 0 0 0 0 0 127 0"/>
<feOffset dy="2"/>
<feGaussianBlur stdDeviation="1"/>
<feColorMatrix type="matrix" values="0 0 0 0 0 0 0 0 0 0 0 0 0 0 0 0 0 0 0.24 0"/>
<feBlend mode="normal" in2="BackgroundImageFix" result="effect1_dropShadow"/>
<feColorMatrix in="SourceAlpha" type="matrix" values="0 0 0 0 0 0 0 0 0 0 0 0 0 0 0 0 0 0 127 0"/>
<feOffset/>
<feGaussianBlur stdDeviation="1"/>
<feColorMatrix type="matrix" values="0 0 0 0 0 0 0 0 0 0 0 0 0 0 0 0 0 0 0.12 0"/>
<feBlend mode="normal" in2="effect1_dropShadow" result="effect2_dropShadow"/>
<feBlend mode="normal" in="SourceGraphic" in2="effect2_dropShadow" result="shape"/>
</filter>
<linearGradient id="paint0_linear" x1="2" y1="2" x2="2" y2="34" gradientUnits="userSpaceOnUse">
<stop stop-color="white" stop-opacity="0.8"/>
<stop offset="0.05" stop-color="white" stop-opacity="0.4"/>
<stop offset="0.2" stop-color="white" stop-opacity="0"/>
<stop offset="1" stop-color="white" stop-opacity="0"/>
</linearGradient>
<linearGradient id="paint1_linear" x1="2" y1="2" x2="2" y2="34" gradientUnits="userSpaceOnUse">
<stop stop-opacity="0"/>
<stop offset="0.8" stop-opacity="0"/>
<stop offset="0.950255" stop-opacity="0.02"/>
<stop offset="1" stop-opacity="0.04"/>
</linearGradient>
<clipPath id="clip0">
<rect width="20.2105" height="20.2105" fill="white" transform="translate(7.89453 7.8949)"/>
</clipPath>
</defs>
</svg>
