<svg width="32" height="32" viewBox="0 0 32 32" fill="none" xmlns="http://www.w3.org/2000/svg">
<rect y="0.000244141" width="32" height="32" fill="#4C6C91"/>
<path d="M16.8371 21.251C16.8371 21.251 17.1451 21.2174 17.3029 21.0511C17.4473 20.8987 17.4423 20.6111 17.4423 20.6111C17.4423 20.6111 17.4231 19.2682 18.0583 19.0699C18.6844 18.8749 19.4882 20.3686 20.3413 20.9429C20.9857 21.3772 21.4749 21.2822 21.4749 21.2822L23.7545 21.251C23.7545 21.251 24.9465 21.1789 24.3814 20.2588C24.3347 20.1834 24.0517 19.5779 22.6869 18.3341C21.257 17.0321 21.449 17.2427 23.1702 14.9902C24.2186 13.6186 24.6377 12.7812 24.5066 12.4231C24.3822 12.0806 23.611 12.1716 23.611 12.1716L21.045 12.1872C21.045 12.1872 20.8547 12.1618 20.7136 12.2445C20.5759 12.3256 20.4866 12.5149 20.4866 12.5149C20.4866 12.5149 20.0809 13.576 19.5391 14.4789C18.3964 16.3832 17.9398 16.4839 17.7528 16.3659C17.3179 16.0898 17.4264 15.2582 17.4264 14.6674C17.4264 12.8214 17.7119 12.052 16.8713 11.8529C16.5925 11.7865 16.3872 11.7431 15.6735 11.7357C14.7578 11.7267 13.9832 11.739 13.5441 11.9495C13.2519 12.0897 13.0266 12.4027 13.1643 12.4207C13.3337 12.4428 13.7177 12.5223 13.9214 12.7943C14.1843 13.1458 14.1751 13.9341 14.1751 13.9341C14.1751 13.9341 14.3262 16.107 13.8221 16.3766C13.4765 16.5618 13.0023 16.184 11.9831 14.456C11.4614 13.5711 11.0674 12.5928 11.0674 12.5928C11.0674 12.5928 10.9915 12.41 10.8554 12.3117C10.691 12.1929 10.4614 12.156 10.4614 12.156L8.02318 12.1716C8.02318 12.1716 7.65673 12.1814 7.52234 12.3379C7.40297 12.4764 7.51316 12.764 7.51316 12.764C7.51316 12.764 9.42219 17.1484 11.5841 19.3583C13.5666 21.3838 15.8171 21.251 15.8171 21.251H16.8371Z" fill="white"/>
</svg>
